[gd_scene load_steps=3 format=2]

[ext_resource path="res://sprites/Pfanne.png" type="Texture" id=1]

[sub_resource type="CapsuleShape2D" id=1]
radius = 4.00005
height = 55.9999

[node name="RigidBody2D" type="RigidBody2D"]
position = Vector2( 0, -18 )

[node name="Sprite" type="Sprite" parent="."]
position = Vector2( 0, -4 )
texture = ExtResource( 1 )

[node name="CollisionShape2D" type="CollisionShape2D" parent="."]
position = Vector2( 0, -1.90735e-06 )
rotation = 1.57079
shape = SubResource( 1 )
