[gd_scene load_steps=3 format=2]

[ext_resource path="res://sprites/Teller.png" type="Texture" id=1]

[sub_resource type="CapsuleShape2D" id=1]
radius = 2.41966
height = 26.0

[node name="StaticBody2D" type="StaticBody2D"]
position = Vector2( 0, -8 )

[node name="CollisionShape2D" type="CollisionShape2D" parent="."]
position = Vector2( 0, 6 )
rotation = 1.5708
scale = Vector2( 0.833, 1 )
shape = SubResource( 1 )

[node name="Sprite" type="Sprite" parent="."]
texture = ExtResource( 1 )
